* HARDWARE------------------------------------------------------------------------------------------------------
    - Machine....................... x86_64
    - Processor..................... Intel(R) Core(TM) i7-4790K CPU @ 4.00GHz
    - Total Memory.................. 16689 MB
    - Free Memory................... 5689 MB
    - Total Swap.................... 19999 MB
    - Free Swap..................... 19999 MB
* OPERATING SYSTEM----------------------------------------------------------------------------------------------
    - System........................ Linux
    - Release....................... 4.15.0-48-generic
    - Platform...................... Linux-4.15.0-48-generic-x86_64-with-debian-buster-sid
    - Version....................... #51-Ubuntu SMP Wed Apr 3 08:28:49 UTC 2019
* THREADS-------------------------------------------------------------------------------------------------------
    - Version....................... NPTL 2.27
    - Name.......................... pthread
    - Lock.......................... semaphore
* PYTHON DISTRIBUTION-------------------------------------------------------------------------------------------
    - Version....................... 3.6.8
    - C Compiler.................... GCC 7.3.0
    - C API Version................. 1013
    - Implementation................ cpython
    - Implementation Version........ 3.6.8
* CONDA DISTRIBUTION--------------------------------------------------------------------------------------------
    - Version....................... 4.6.12
    - Build......................... 3.17.8
* QT BINDINGS---------------------------------------------------------------------------------------------------
    - PyQt5 Version................. 5.12.1
    - PyQt5 Qt Version.............. 5.12.2
    - PySide2 Version............... 5.12.2
    - PySide2 Qt Version............ 5.12.2
* QT ABSTRACTIONS-----------------------------------------------------------------------------------------------
    - qtpy Version.................. 1.7.0
    - qtpy Binding.................. pyqt5
    - qtpy Binding Variable......... os.environ['QT_API']
    - qtpy Import Name.............. qtpy
    - pyqtgraph Version............. 0.10.0
    - pyqtgraph Binding............. Not set or inexistent
    - pyqtgraph Binding Variable.... os.environ['PYQTGRAPH_QT_LIB']
    - pyqtgraph Import Name......... pyqtgraph
* FLOAT---------------------------------------------------------------------------------------------------------
    - Epsilon....................... 2.220446049250313e-16
    - Digits........................ 15
    - Precision..................... 53
    - Maximum....................... 1.7976931348623157e+308
    - Maximum Exp................... 1024
    - Max. 10 Exp................... 308
    - Minimum....................... 2.2250738585072014e-308
    - Miminim Exp................... -1021
    - Min. 10 Exp................... -307
    - Radix......................... 2
    - Rounds........................ 1
* INTEGER-------------------------------------------------------------------------------------------------------
    - Bits per Digit................ 30
    - Size of Digit................. 4
* PYTHON PACKAGES-----------------------------------------------------------------------------------------------
    - alabaster..................... 0.7.12
    - appdirs....................... 1.4.3
    - asn1crypto.................... 0.24.0
    - ...
* CONDA PACKAGES------------------------------------------------------------------------------------------------
    - alabaster..................... 0.7.12
    - appdirs....................... 1.4.3
    - asn1crypto.................... 0.24.0
    - ...
